<?xml version="1.0" encoding="UTF-8" standalone="no"?>
<!-- Created with Inkscape (http://www.inkscape.org/) -->

<svg
   xmlns:dc="http://purl.org/dc/elements/1.1/"
   xmlns:cc="http://creativecommons.org/ns#"
   xmlns:rdf="http://www.w3.org/1999/02/22-rdf-syntax-ns#"
   xmlns:svg="http://www.w3.org/2000/svg"
   xmlns="http://www.w3.org/2000/svg"
   xmlns:sodipodi="http://sodipodi.sourceforge.net/DTD/sodipodi-0.dtd"
   xmlns:inkscape="http://www.inkscape.org/namespaces/inkscape"
   id="svg8"
   version="1.1"
   viewBox="0 0 210 297"
   height="297mm"
   width="210mm"
   inkscape:version="0.92.4 (f8dce91, 2019-08-02)"
   sodipodi:docname="calender.svg">
  <defs
     id="defs2" />
  <sodipodi:namedview
     id="base"
     pagecolor="#ffffff"
     bordercolor="#666666"
     borderopacity="1.0"
     inkscape:pageopacity="0.0"
     inkscape:pageshadow="2"
     inkscape:zoom="0.49497475"
     inkscape:cx="420.00281"
     inkscape:cy="454.73035"
     inkscape:document-units="mm"
     inkscape:current-layer="svg8"
     showgrid="false"
     inkscape:window-width="1875"
     inkscape:window-height="1145"
     inkscape:window-x="45"
     inkscape:window-y="27"
     inkscape:window-maximized="1"
     showguides="true"
     inkscape:guide-bbox="true">
    <sodipodi:guide
       position="65.767856,278.56846"
       orientation="0,1"
       id="guide1502"
       inkscape:locked="false" />
  </sodipodi:namedview>
  <metadata
     id="metadata5">
    <rdf:RDF>
      <cc:Work
         rdf:about="">
        <dc:format>image/svg+xml</dc:format>
        <dc:type
           rdf:resource="http://purl.org/dc/dcmitype/StillImage" />
        <dc:title />
      </cc:Work>
    </rdf:RDF>
  </metadata>
  <g
     inkscape:label="Layer 1"
     inkscape:groupmode="layer"
     id="layer1" />
  <g
     id="g2056"
     inkscape:export-filename="/home/luke/Documents/learning/autt/module2/assignments/resources/calender-previous.png"
     inkscape:export-xdpi="100"
     inkscape:export-ydpi="100">
    <g
       transform="translate(-80.180858,5.3453906)"
       id="g1408">
      <g
         id="g1349"
         transform="matrix(2.2793616,0,0,2.2793616,-140.42154,-53.382578)">
        <g
           transform="translate(77,24.888889)"
           id="g1112">
          <text
             style="font-size:2.66666675px;font-family:arial;text-align:center;text-anchor:middle;fill:#909090"
             x="0"
             y="6.2222223"
             id="text1098">Mon</text>
          <text
             style="font-size:2.66666675px;font-family:arial;text-align:center;text-anchor:middle;fill:#909090"
             x="8"
             y="6.2222223"
             id="text1100">Tue</text>
          <text
             style="font-size:2.66666675px;font-family:arial;text-align:center;text-anchor:middle;fill:#909090"
             x="16"
             y="6.2222223"
             id="text1102">Wed</text>
          <text
             style="font-size:2.66666675px;font-family:arial;text-align:center;text-anchor:middle;fill:#909090"
             x="24"
             y="6.2222223"
             id="text1104">Thu</text>
          <text
             style="font-size:2.66666675px;font-family:arial;text-align:center;text-anchor:middle;fill:#909090"
             x="32"
             y="6.2222223"
             id="text1106">Fri</text>
          <text
             style="font-size:2.66666675px;font-family:arial;text-align:center;text-anchor:middle;fill:#909090"
             x="40"
             y="6.2222223"
             id="text1108">Sat</text>
          <text
             style="font-size:2.66666675px;font-family:arial;text-align:center;text-anchor:middle;fill:#909090"
             x="48"
             y="6.2222223"
             id="text1110">Sun</text>
        </g>
        <g
           transform="translate(77,24.888889)"
           id="g1176">
          <text
             style="font-size:4px;font-family:arial;text-align:center;text-anchor:middle;fill:#000000"
             x="8"
             y="12.444445"
             id="text1114">1</text>
          <text
             style="font-size:4px;font-family:arial;text-align:center;text-anchor:middle;fill:#000000"
             x="16"
             y="12.444445"
             id="text1116">2</text>
          <text
             style="font-size:4px;font-family:arial;text-align:center;text-anchor:middle;fill:#000000"
             x="24"
             y="12.444445"
             id="text1118">3</text>
          <text
             style="font-size:4px;font-family:arial;text-align:center;text-anchor:middle;fill:#000000"
             x="32"
             y="12.444445"
             id="text1120">4</text>
          <text
             style="font-size:4px;font-family:arial;text-align:center;text-anchor:middle;fill:#787878"
             x="40"
             y="12.444445"
             id="text1122">5</text>
          <text
             style="font-size:4px;font-family:arial;text-align:center;text-anchor:middle;fill:#787878"
             x="48"
             y="12.444445"
             id="text1124">6</text>
          <text
             style="font-size:4px;font-family:arial;text-align:center;text-anchor:middle;fill:#000000"
             x="0"
             y="18.666666"
             id="text1126">7</text>
          <text
             style="font-size:4px;font-family:arial;text-align:center;text-anchor:middle;fill:#000000"
             x="8"
             y="18.666666"
             id="text1128">8</text>
          <text
             style="font-size:4px;font-family:arial;text-align:center;text-anchor:middle;fill:#000000"
             x="16"
             y="18.666666"
             id="text1130">9</text>
          <text
             style="font-size:4px;font-family:arial;text-align:center;text-anchor:middle;fill:#000000"
             x="24"
             y="18.666666"
             id="text1132">10</text>
          <text
             style="font-size:4px;font-family:arial;text-align:center;text-anchor:middle;fill:#000000"
             x="32"
             y="18.666666"
             id="text1134">11</text>
          <text
             style="font-size:4px;font-family:arial;text-align:center;text-anchor:middle;fill:#787878"
             x="40"
             y="18.666666"
             id="text1136">12</text>
          <text
             style="font-size:4px;font-family:arial;text-align:center;text-anchor:middle;fill:#787878"
             x="48"
             y="18.666666"
             id="text1138">13</text>
          <text
             style="font-size:4px;font-family:arial;text-align:center;text-anchor:middle;fill:#000000"
             x="0"
             y="24.888889"
             id="text1140">14</text>
          <text
             style="font-size:4px;font-family:arial;text-align:center;text-anchor:middle;fill:#000000"
             x="8"
             y="24.888889"
             id="text1142">15</text>
          <text
             style="font-size:4px;font-family:arial;text-align:center;text-anchor:middle;fill:#000000"
             x="16"
             y="24.888889"
             id="text1144">16</text>
          <text
             style="font-size:4px;font-family:arial;text-align:center;text-anchor:middle;fill:#000000"
             x="24"
             y="24.888889"
             id="text1146">17</text>
          <text
             style="font-size:4px;font-family:arial;text-align:center;text-anchor:middle;fill:#000000"
             x="32"
             y="24.888889"
             id="text1148">18</text>
          <text
             style="font-size:4px;font-family:arial;text-align:center;text-anchor:middle;fill:#787878"
             x="40"
             y="24.888889"
             id="text1150">19</text>
          <text
             style="font-size:4px;font-family:arial;text-align:center;text-anchor:middle;fill:#787878"
             x="48"
             y="24.888889"
             id="text1152">20</text>
          <text
             style="font-size:4px;font-family:arial;text-align:center;text-anchor:middle;fill:#000000"
             x="0"
             y="31.111111"
             id="text1154">21</text>
          <text
             style="font-size:4px;font-family:arial;text-align:center;text-anchor:middle;fill:#000000"
             x="8"
             y="31.111111"
             id="text1156">22</text>
          <text
             style="font-size:4px;font-family:arial;text-align:center;text-anchor:middle;fill:#000000"
             x="16"
             y="31.111111"
             id="text1158">23</text>
          <text
             style="font-size:4px;font-family:arial;text-align:center;text-anchor:middle;fill:#000000"
             x="24"
             y="31.111111"
             id="text1160">24</text>
          <text
             style="font-size:4px;font-family:arial;text-align:center;text-anchor:middle;fill:#000000"
             x="32"
             y="31.111111"
             id="text1162">25</text>
          <text
             style="font-size:4px;font-family:arial;text-align:center;text-anchor:middle;fill:#787878"
             x="40"
             y="31.111111"
             id="text1164">26</text>
          <text
             style="font-size:4px;font-family:arial;text-align:center;text-anchor:middle;fill:#787878"
             x="48"
             y="31.111111"
             id="text1166">27</text>
          <text
             style="font-size:4px;font-family:arial;text-align:center;text-anchor:middle;fill:#000000"
             x="0"
             y="37.333332"
             id="text1168">28</text>
          <text
             style="font-size:4px;font-family:arial;text-align:center;text-anchor:middle;fill:#000000"
             x="8"
             y="37.333332"
             id="text1170">29</text>
          <text
             style="font-size:4px;font-family:arial;text-align:center;text-anchor:middle;fill:#000000"
             x="16"
             y="37.333332"
             id="text1172">30</text>
          <text
             style="font-size:4px;font-family:arial;text-align:center;text-anchor:middle;fill:#000000"
             x="24"
             y="37.333332"
             id="text1174">31</text>
        </g>
      </g>
      <rect
         style="opacity:1;fill:none;fill-opacity:1;fill-rule:nonzero;stroke:#1400b6;stroke-width:1.30974579;stroke-miterlimit:4;stroke-dasharray:none;stroke-opacity:1"
         id="rect1351"
         width="19.077856"
         height="14.483646"
         x="25.544937"
         y="35.172333" />
      <rect
         y="35.172333"
         x="44.622795"
         height="14.483646"
         width="19.077856"
         id="rect1357"
         style="opacity:1;fill:none;fill-opacity:1;fill-rule:nonzero;stroke:#1400b6;stroke-width:1.30974579;stroke-miterlimit:4;stroke-dasharray:none;stroke-opacity:1" />
      <rect
         y="63.770172"
         x="24.743128"
         height="14.483646"
         width="19.077856"
         id="rect1359"
         style="opacity:1;fill:none;fill-opacity:1;fill-rule:nonzero;stroke:#1400b6;stroke-width:1.30974579;stroke-miterlimit:4;stroke-dasharray:none;stroke-opacity:1" />
      <rect
         style="opacity:1;fill:none;fill-opacity:1;fill-rule:nonzero;stroke:#1400b6;stroke-width:1.30974579;stroke-miterlimit:4;stroke-dasharray:none;stroke-opacity:1"
         id="rect1361"
         width="19.077856"
         height="14.483646"
         x="43.820988"
         y="63.770172" />
    </g>
    <g
       style="opacity:0"
       id="g1595">
      <g
         transform="matrix(2.2793616,0,0,2.2793616,-78.069458,-48.0534)"
         id="g1490"
         style="">
        <g
           id="g1424"
           transform="translate(77,24.888889)"
           style="">
          <text
             id="text1410"
             y="6.2222223"
             x="0"
             style="font-size:2.66666675px;font-family:arial;text-align:center;text-anchor:middle;fill:#909090">Mon</text>
          <text
             id="text1412"
             y="6.2222223"
             x="8"
             style="font-size:2.66666675px;font-family:arial;text-align:center;text-anchor:middle;fill:#909090">Tue</text>
          <text
             id="text1414"
             y="6.2222223"
             x="16"
             style="font-size:2.66666675px;font-family:arial;text-align:center;text-anchor:middle;fill:#909090">Wed</text>
          <text
             id="text1416"
             y="6.2222223"
             x="24"
             style="font-size:2.66666675px;font-family:arial;text-align:center;text-anchor:middle;fill:#909090">Thu</text>
          <text
             id="text1418"
             y="6.2222223"
             x="32"
             style="font-size:2.66666675px;font-family:arial;text-align:center;text-anchor:middle;fill:#909090">Fri</text>
          <text
             id="text1420"
             y="6.2222223"
             x="40"
             style="font-size:2.66666675px;font-family:arial;text-align:center;text-anchor:middle;fill:#909090">Sat</text>
          <text
             id="text1422"
             y="6.2222223"
             x="48"
             style="font-size:2.66666675px;font-family:arial;text-align:center;text-anchor:middle;fill:#909090">Sun</text>
        </g>
        <g
           id="g1488"
           transform="translate(77,24.888889)"
           style="">
          <text
             id="text1426"
             y="12.444445"
             x="8"
             style="font-size:4px;font-family:arial;text-align:center;text-anchor:middle;fill:#000000">1</text>
          <text
             id="text1428"
             y="12.444445"
             x="16"
             style="font-size:4px;font-family:arial;text-align:center;text-anchor:middle;fill:#000000">2</text>
          <text
             id="text1430"
             y="12.444445"
             x="24"
             style="font-size:4px;font-family:arial;text-align:center;text-anchor:middle;fill:#000000">3</text>
          <text
             id="text1432"
             y="12.444445"
             x="32"
             style="font-size:4px;font-family:arial;text-align:center;text-anchor:middle;fill:#000000">4</text>
          <text
             id="text1434"
             y="12.444445"
             x="40"
             style="font-size:4px;font-family:arial;text-align:center;text-anchor:middle;fill:#787878">5</text>
          <text
             id="text1436"
             y="12.444445"
             x="48"
             style="font-size:4px;font-family:arial;text-align:center;text-anchor:middle;fill:#787878">6</text>
          <text
             id="text1438"
             y="18.666666"
             x="0"
             style="font-size:4px;font-family:arial;text-align:center;text-anchor:middle;fill:#000000">7</text>
          <text
             id="text1440"
             y="18.666666"
             x="8"
             style="font-size:4px;font-family:arial;text-align:center;text-anchor:middle;fill:#000000">8</text>
          <text
             id="text1442"
             y="18.666666"
             x="16"
             style="font-size:4px;font-family:arial;text-align:center;text-anchor:middle;fill:#000000">9</text>
          <text
             id="text1444"
             y="18.666666"
             x="24"
             style="font-size:4px;font-family:arial;text-align:center;text-anchor:middle;fill:#000000">10</text>
          <text
             id="text1446"
             y="18.666666"
             x="32"
             style="font-size:4px;font-family:arial;text-align:center;text-anchor:middle;fill:#000000">11</text>
          <text
             id="text1448"
             y="18.666666"
             x="40"
             style="font-size:4px;font-family:arial;text-align:center;text-anchor:middle;fill:#787878">12</text>
          <text
             id="text1450"
             y="18.666666"
             x="48"
             style="font-size:4px;font-family:arial;text-align:center;text-anchor:middle;fill:#787878">13</text>
          <text
             id="text1452"
             y="24.888889"
             x="0"
             style="font-size:4px;font-family:arial;text-align:center;text-anchor:middle;fill:#000000">14</text>
          <text
             id="text1454"
             y="24.888889"
             x="8"
             style="font-size:4px;font-family:arial;text-align:center;text-anchor:middle;fill:#000000">15</text>
          <text
             id="text1456"
             y="24.888889"
             x="16"
             style="font-size:4px;font-family:arial;text-align:center;text-anchor:middle;fill:#000000">16</text>
          <text
             id="text1458"
             y="24.888889"
             x="24"
             style="font-size:4px;font-family:arial;text-align:center;text-anchor:middle;fill:#000000">17</text>
          <text
             id="text1460"
             y="24.888889"
             x="32"
             style="font-size:4px;font-family:arial;text-align:center;text-anchor:middle;fill:#000000">18</text>
          <text
             id="text1462"
             y="24.888889"
             x="40"
             style="font-size:4px;font-family:arial;text-align:center;text-anchor:middle;fill:#787878">19</text>
          <text
             id="text1464"
             y="24.888889"
             x="48"
             style="font-size:4px;font-family:arial;text-align:center;text-anchor:middle;fill:#787878">20</text>
          <text
             id="text1466"
             y="31.111111"
             x="0"
             style="font-size:4px;font-family:arial;text-align:center;text-anchor:middle;fill:#000000">21</text>
          <text
             id="text1468"
             y="31.111111"
             x="8"
             style="font-size:4px;font-family:arial;text-align:center;text-anchor:middle;fill:#000000">22</text>
          <text
             id="text1470"
             y="31.111111"
             x="16"
             style="font-size:4px;font-family:arial;text-align:center;text-anchor:middle;fill:#000000">23</text>
          <text
             id="text1472"
             y="31.111111"
             x="24"
             style="font-size:4px;font-family:arial;text-align:center;text-anchor:middle;fill:#000000">24</text>
          <text
             id="text1474"
             y="31.111111"
             x="32"
             style="font-size:4px;font-family:arial;text-align:center;text-anchor:middle;fill:#000000">25</text>
          <text
             id="text1476"
             y="31.111111"
             x="40"
             style="font-size:4px;font-family:arial;text-align:center;text-anchor:middle;fill:#787878">26</text>
          <text
             id="text1478"
             y="31.111111"
             x="48"
             style="font-size:4px;font-family:arial;text-align:center;text-anchor:middle;fill:#787878">27</text>
          <text
             id="text1480"
             y="37.333332"
             x="0"
             style="font-size:4px;font-family:arial;text-align:center;text-anchor:middle;fill:#000000">28</text>
          <text
             id="text1482"
             y="37.333332"
             x="8"
             style="font-size:4px;font-family:arial;text-align:center;text-anchor:middle;fill:#000000">29</text>
          <text
             id="text1484"
             y="37.333332"
             x="16"
             style="font-size:4px;font-family:arial;text-align:center;text-anchor:middle;fill:#000000">30</text>
          <text
             id="text1486"
             y="37.333332"
             x="24"
             style="font-size:4px;font-family:arial;text-align:center;text-anchor:middle;fill:#000000">31</text>
        </g>
      </g>
      <rect
         y="40.501511"
         x="87.897018"
         height="14.483646"
         width="19.077856"
         id="rect1492"
         style="opacity:1;fill:none;fill-opacity:1;fill-rule:nonzero;stroke:#1400b6;stroke-width:1.30974579;stroke-miterlimit:4;stroke-dasharray:none;stroke-opacity:1" />
      <rect
         style="opacity:1;fill:none;fill-opacity:1;fill-rule:nonzero;stroke:#1400b6;stroke-width:1.30974579;stroke-miterlimit:4;stroke-dasharray:none;stroke-opacity:1"
         id="rect1494"
         width="19.077856"
         height="14.483646"
         x="106.44571"
         y="40.501511" />
      <rect
         y="40.501511"
         x="125.49571"
         height="14.483646"
         width="19.077856"
         id="rect1549"
         style="opacity:1;fill:none;fill-opacity:1;fill-rule:nonzero;stroke:#1400b6;stroke-width:1.30974579;stroke-miterlimit:4;stroke-dasharray:none;stroke-opacity:1" />
    </g>
  </g>
  <g
     id="g1193"
     inkscape:export-filename="/home/luke/Documents/learning/autt/module2/assignments/resources/calender-current.png"
     inkscape:export-xdpi="100"
     inkscape:export-ydpi="100">
    <g
       transform="translate(-1.0690781,124.5476)"
       id="g1872">
      <g
         transform="translate(-80.180858,5.3453906)"
         id="g1780">
        <g
           id="g1770"
           transform="matrix(2.2793616,0,0,2.2793616,-140.42154,-53.382578)">
          <g
             transform="translate(77,24.888889)"
             id="g1704">
            <text
               style="font-size:2.66666675px;font-family:arial;text-align:center;text-anchor:middle;fill:#909090"
               x="0"
               y="6.2222223"
               id="text1690">Mon</text>
            <text
               style="font-size:2.66666675px;font-family:arial;text-align:center;text-anchor:middle;fill:#909090"
               x="8"
               y="6.2222223"
               id="text1692">Tue</text>
            <text
               style="font-size:2.66666675px;font-family:arial;text-align:center;text-anchor:middle;fill:#909090"
               x="16"
               y="6.2222223"
               id="text1694">Wed</text>
            <text
               style="font-size:2.66666675px;font-family:arial;text-align:center;text-anchor:middle;fill:#909090"
               x="24"
               y="6.2222223"
               id="text1696">Thu</text>
            <text
               style="font-size:2.66666675px;font-family:arial;text-align:center;text-anchor:middle;fill:#909090"
               x="32"
               y="6.2222223"
               id="text1698">Fri</text>
            <text
               style="font-size:2.66666675px;font-family:arial;text-align:center;text-anchor:middle;fill:#909090"
               x="40"
               y="6.2222223"
               id="text1700">Sat</text>
            <text
               style="font-size:2.66666675px;font-family:arial;text-align:center;text-anchor:middle;fill:#909090"
               x="48"
               y="6.2222223"
               id="text1702">Sun</text>
          </g>
          <g
             transform="translate(77,24.888889)"
             id="g1768">
            <text
               style="font-size:4px;font-family:arial;text-align:center;text-anchor:middle;fill:#000000"
               x="8"
               y="12.444445"
               id="text1706">1</text>
            <text
               style="font-size:4px;font-family:arial;text-align:center;text-anchor:middle;fill:#000000"
               x="16"
               y="12.444445"
               id="text1708">2</text>
            <text
               style="font-size:4px;font-family:arial;text-align:center;text-anchor:middle;fill:#000000"
               x="24"
               y="12.444445"
               id="text1710">3</text>
            <text
               style="font-size:4px;font-family:arial;text-align:center;text-anchor:middle;fill:#000000"
               x="32"
               y="12.444445"
               id="text1712">4</text>
            <text
               style="font-size:4px;font-family:arial;text-align:center;text-anchor:middle;fill:#787878"
               x="40"
               y="12.444445"
               id="text1714">5</text>
            <text
               style="font-size:4px;font-family:arial;text-align:center;text-anchor:middle;fill:#787878"
               x="48"
               y="12.444445"
               id="text1716">6</text>
            <text
               style="font-size:4px;font-family:arial;text-align:center;text-anchor:middle;fill:#000000"
               x="0"
               y="18.666666"
               id="text1718">7</text>
            <text
               style="font-size:4px;font-family:arial;text-align:center;text-anchor:middle;fill:#000000"
               x="8"
               y="18.666666"
               id="text1720">8</text>
            <text
               style="font-size:4px;font-family:arial;text-align:center;text-anchor:middle;fill:#000000"
               x="16"
               y="18.666666"
               id="text1722">9</text>
            <text
               style="font-size:4px;font-family:arial;text-align:center;text-anchor:middle;fill:#000000"
               x="24"
               y="18.666666"
               id="text1724">10</text>
            <text
               style="font-size:4px;font-family:arial;text-align:center;text-anchor:middle;fill:#000000"
               x="32"
               y="18.666666"
               id="text1726">11</text>
            <text
               style="font-size:4px;font-family:arial;text-align:center;text-anchor:middle;fill:#787878"
               x="40"
               y="18.666666"
               id="text1728">12</text>
            <text
               style="font-size:4px;font-family:arial;text-align:center;text-anchor:middle;fill:#787878"
               x="48"
               y="18.666666"
               id="text1730">13</text>
            <text
               style="font-size:4px;font-family:arial;text-align:center;text-anchor:middle;fill:#000000"
               x="0"
               y="24.888889"
               id="text1732">14</text>
            <text
               style="font-size:4px;font-family:arial;text-align:center;text-anchor:middle;fill:#000000"
               x="8"
               y="24.888889"
               id="text1734">15</text>
            <text
               style="font-size:4px;font-family:arial;text-align:center;text-anchor:middle;fill:#000000"
               x="16"
               y="24.888889"
               id="text1736">16</text>
            <text
               style="font-size:4px;font-family:arial;text-align:center;text-anchor:middle;fill:#000000"
               x="24"
               y="24.888889"
               id="text1738">17</text>
            <text
               style="font-size:4px;font-family:arial;text-align:center;text-anchor:middle;fill:#000000"
               x="32"
               y="24.888889"
               id="text1740">18</text>
            <text
               style="font-size:4px;font-family:arial;text-align:center;text-anchor:middle;fill:#787878"
               x="40"
               y="24.888889"
               id="text1742">19</text>
            <text
               style="font-size:4px;font-family:arial;text-align:center;text-anchor:middle;fill:#787878"
               x="48"
               y="24.888889"
               id="text1744">20</text>
            <text
               style="font-size:4px;font-family:arial;text-align:center;text-anchor:middle;fill:#000000"
               x="0"
               y="31.111111"
               id="text1746">21</text>
            <text
               style="font-size:4px;font-family:arial;text-align:center;text-anchor:middle;fill:#000000"
               x="8"
               y="31.111111"
               id="text1748">22</text>
            <text
               style="font-size:4px;font-family:arial;text-align:center;text-anchor:middle;fill:#000000"
               x="16"
               y="31.111111"
               id="text1750">23</text>
            <text
               style="font-size:4px;font-family:arial;text-align:center;text-anchor:middle;fill:#000000"
               x="24"
               y="31.111111"
               id="text1752">24</text>
            <text
               style="font-size:4px;font-family:arial;text-align:center;text-anchor:middle;fill:#000000"
               x="32"
               y="31.111111"
               id="text1754">25</text>
            <text
               style="font-size:4px;font-family:arial;text-align:center;text-anchor:middle;fill:#787878"
               x="40"
               y="31.111111"
               id="text1756">26</text>
            <text
               style="font-size:4px;font-family:arial;text-align:center;text-anchor:middle;fill:#787878"
               x="48"
               y="31.111111"
               id="text1758">27</text>
            <text
               style="font-size:4px;font-family:arial;text-align:center;text-anchor:middle;fill:#000000"
               x="0"
               y="37.333332"
               id="text1760">28</text>
            <text
               style="font-size:4px;font-family:arial;text-align:center;text-anchor:middle;fill:#000000"
               x="8"
               y="37.333332"
               id="text1762">29</text>
            <text
               style="font-size:4px;font-family:arial;text-align:center;text-anchor:middle;fill:#000000"
               x="16"
               y="37.333332"
               id="text1764">30</text>
            <text
               style="font-size:4px;font-family:arial;text-align:center;text-anchor:middle;fill:#000000"
               x="24"
               y="37.333332"
               id="text1766">31</text>
          </g>
        </g>
        <rect
           style="opacity:1;fill:none;fill-opacity:1;fill-rule:nonzero;stroke:#1400b6;stroke-width:1.30974579;stroke-miterlimit:4;stroke-dasharray:none;stroke-opacity:1"
           id="rect1772"
           width="19.077856"
           height="14.483646"
           x="25.544937"
           y="35.172333" />
        <rect
           y="35.172333"
           x="44.622795"
           height="14.483646"
           width="19.077856"
           id="rect1774"
           style="opacity:1;fill:none;fill-opacity:1;fill-rule:nonzero;stroke:#1400b6;stroke-width:1.30974579;stroke-miterlimit:4;stroke-dasharray:none;stroke-opacity:1" />
        <rect
           y="63.770172"
           x="24.743128"
           height="14.483646"
           width="19.077856"
           id="rect1776"
           style="opacity:1;fill:none;fill-opacity:1;fill-rule:nonzero;stroke:#1400b6;stroke-width:1.30974579;stroke-miterlimit:4;stroke-dasharray:none;stroke-opacity:1" />
        <rect
           style="opacity:1;fill:none;fill-opacity:1;fill-rule:nonzero;stroke:#1400b6;stroke-width:1.30974579;stroke-miterlimit:4;stroke-dasharray:none;stroke-opacity:1"
           id="rect1778"
           width="19.077856"
           height="14.483646"
           x="43.820988"
           y="63.770172" />
      </g>
      <g
         id="g1870">
        <g
           transform="matrix(2.2793616,0,0,2.2793616,-78.069458,-48.0534)"
           id="g1862">
          <g
             id="g1796"
             transform="translate(77,24.888889)">
            <text
               id="text1782"
               y="6.2222223"
               x="0"
               style="font-size:2.66666675px;font-family:arial;text-align:center;text-anchor:middle;fill:#909090">Mon</text>
            <text
               id="text1784"
               y="6.2222223"
               x="8"
               style="font-size:2.66666675px;font-family:arial;text-align:center;text-anchor:middle;fill:#909090">Tue</text>
            <text
               id="text1786"
               y="6.2222223"
               x="16"
               style="font-size:2.66666675px;font-family:arial;text-align:center;text-anchor:middle;fill:#909090">Wed</text>
            <text
               id="text1788"
               y="6.2222223"
               x="24"
               style="font-size:2.66666675px;font-family:arial;text-align:center;text-anchor:middle;fill:#909090">Thu</text>
            <text
               id="text1790"
               y="6.2222223"
               x="32"
               style="font-size:2.66666675px;font-family:arial;text-align:center;text-anchor:middle;fill:#909090">Fri</text>
            <text
               id="text1792"
               y="6.2222223"
               x="40"
               style="font-size:2.66666675px;font-family:arial;text-align:center;text-anchor:middle;fill:#909090">Sat</text>
            <text
               id="text1794"
               y="6.2222223"
               x="48"
               style="font-size:2.66666675px;font-family:arial;text-align:center;text-anchor:middle;fill:#909090">Sun</text>
          </g>
          <g
             id="g1860"
             transform="translate(77,24.888889)">
            <text
               id="text1798"
               y="12.444445"
               x="8"
               style="font-size:4px;font-family:arial;text-align:center;text-anchor:middle;fill:#000000">1</text>
            <text
               id="text1800"
               y="12.444445"
               x="16"
               style="font-size:4px;font-family:arial;text-align:center;text-anchor:middle;fill:#000000">2</text>
            <text
               id="text1802"
               y="12.444445"
               x="24"
               style="font-size:4px;font-family:arial;text-align:center;text-anchor:middle;fill:#000000">3</text>
            <text
               id="text1804"
               y="12.444445"
               x="32"
               style="font-size:4px;font-family:arial;text-align:center;text-anchor:middle;fill:#000000">4</text>
            <text
               id="text1806"
               y="12.444445"
               x="40"
               style="font-size:4px;font-family:arial;text-align:center;text-anchor:middle;fill:#787878">5</text>
            <text
               id="text1808"
               y="12.444445"
               x="48"
               style="font-size:4px;font-family:arial;text-align:center;text-anchor:middle;fill:#787878">6</text>
            <text
               id="text1810"
               y="18.666666"
               x="0"
               style="font-size:4px;font-family:arial;text-align:center;text-anchor:middle;fill:#000000">7</text>
            <text
               id="text1812"
               y="18.666666"
               x="8"
               style="font-size:4px;font-family:arial;text-align:center;text-anchor:middle;fill:#000000">8</text>
            <text
               id="text1814"
               y="18.666666"
               x="16"
               style="font-size:4px;font-family:arial;text-align:center;text-anchor:middle;fill:#000000">9</text>
            <text
               id="text1816"
               y="18.666666"
               x="24"
               style="font-size:4px;font-family:arial;text-align:center;text-anchor:middle;fill:#000000">10</text>
            <text
               id="text1818"
               y="18.666666"
               x="32"
               style="font-size:4px;font-family:arial;text-align:center;text-anchor:middle;fill:#000000">11</text>
            <text
               id="text1820"
               y="18.666666"
               x="40"
               style="font-size:4px;font-family:arial;text-align:center;text-anchor:middle;fill:#787878">12</text>
            <text
               id="text1822"
               y="18.666666"
               x="48"
               style="font-size:4px;font-family:arial;text-align:center;text-anchor:middle;fill:#787878">13</text>
            <text
               id="text1824"
               y="24.888889"
               x="0"
               style="font-size:4px;font-family:arial;text-align:center;text-anchor:middle;fill:#000000">14</text>
            <text
               id="text1826"
               y="24.888889"
               x="8"
               style="font-size:4px;font-family:arial;text-align:center;text-anchor:middle;fill:#000000">15</text>
            <text
               id="text1828"
               y="24.888889"
               x="16"
               style="font-size:4px;font-family:arial;text-align:center;text-anchor:middle;fill:#000000">16</text>
            <text
               id="text1830"
               y="24.888889"
               x="24"
               style="font-size:4px;font-family:arial;text-align:center;text-anchor:middle;fill:#000000">17</text>
            <text
               id="text1832"
               y="24.888889"
               x="32"
               style="font-size:4px;font-family:arial;text-align:center;text-anchor:middle;fill:#000000">18</text>
            <text
               id="text1834"
               y="24.888889"
               x="40"
               style="font-size:4px;font-family:arial;text-align:center;text-anchor:middle;fill:#787878">19</text>
            <text
               id="text1836"
               y="24.888889"
               x="48"
               style="font-size:4px;font-family:arial;text-align:center;text-anchor:middle;fill:#787878">20</text>
            <text
               id="text1838"
               y="31.111111"
               x="0"
               style="font-size:4px;font-family:arial;text-align:center;text-anchor:middle;fill:#000000">21</text>
            <text
               id="text1840"
               y="31.111111"
               x="8"
               style="font-size:4px;font-family:arial;text-align:center;text-anchor:middle;fill:#000000">22</text>
            <text
               id="text1842"
               y="31.111111"
               x="16"
               style="font-size:4px;font-family:arial;text-align:center;text-anchor:middle;fill:#000000">23</text>
            <text
               id="text1844"
               y="31.111111"
               x="24"
               style="font-size:4px;font-family:arial;text-align:center;text-anchor:middle;fill:#000000">24</text>
            <text
               id="text1846"
               y="31.111111"
               x="32"
               style="font-size:4px;font-family:arial;text-align:center;text-anchor:middle;fill:#000000">25</text>
            <text
               id="text1848"
               y="31.111111"
               x="40"
               style="font-size:4px;font-family:arial;text-align:center;text-anchor:middle;fill:#787878">26</text>
            <text
               id="text1850"
               y="31.111111"
               x="48"
               style="font-size:4px;font-family:arial;text-align:center;text-anchor:middle;fill:#787878">27</text>
            <text
               id="text1852"
               y="37.333332"
               x="0"
               style="font-size:4px;font-family:arial;text-align:center;text-anchor:middle;fill:#000000">28</text>
            <text
               id="text1854"
               y="37.333332"
               x="8"
               style="font-size:4px;font-family:arial;text-align:center;text-anchor:middle;fill:#000000">29</text>
            <text
               id="text1856"
               y="37.333332"
               x="16"
               style="font-size:4px;font-family:arial;text-align:center;text-anchor:middle;fill:#000000">30</text>
            <text
               id="text1858"
               y="37.333332"
               x="24"
               style="font-size:4px;font-family:arial;text-align:center;text-anchor:middle;fill:#000000">31</text>
          </g>
        </g>
        <rect
           y="40.501511"
           x="87.897018"
           height="14.483646"
           width="19.077856"
           id="rect1864"
           style="opacity:1;fill:none;fill-opacity:1;fill-rule:nonzero;stroke:#1400b6;stroke-width:1.30974579;stroke-miterlimit:4;stroke-dasharray:none;stroke-opacity:1" />
        <rect
           style="opacity:1;fill:none;fill-opacity:1;fill-rule:nonzero;stroke:#1400b6;stroke-width:1.30974579;stroke-miterlimit:4;stroke-dasharray:none;stroke-opacity:1"
           id="rect1866"
           width="19.077856"
           height="14.483646"
           x="106.44571"
           y="40.501511" />
        <rect
           y="40.501511"
           x="125.49571"
           height="14.483646"
           width="19.077856"
           id="rect1868"
           style="opacity:1;fill:none;fill-opacity:1;fill-rule:nonzero;stroke:#1400b6;stroke-width:1.30974579;stroke-miterlimit:4;stroke-dasharray:none;stroke-opacity:1" />
      </g>
    </g>
    <g
       transform="matrix(0.972585,0,0,0.98263388,1.8837958,3.0050794)"
       id="g1096">
      <path
         style="fill:none;stroke:#ff0004;stroke-width:1.5;stroke-linecap:butt;stroke-linejoin:miter;stroke-miterlimit:4;stroke-dasharray:none;stroke-opacity:1"
         d="M -57.730217,143.05274 68.420998,218.42275"
         id="path2058"
         inkscape:connector-curvature="0" />
      <path
         inkscape:connector-curvature="0"
         id="path2060"
         d="M -57.730215,218.42273 68.420995,143.05272"
         style="fill:none;stroke:#ff0004;stroke-width:1.5;stroke-linecap:butt;stroke-linejoin:miter;stroke-miterlimit:4;stroke-dasharray:none;stroke-opacity:1" />
    </g>
  </g>
</svg>
